Outliers detection — detect_outliers • pmxploit
…
outliers: tibble of the outliers with 5 columns: ID, TIME, CMT, DV and
"residuals".

    Examples

EXAMPLERUN %>%
 detect_outliers(compartment = 2, residuals = "CWRES", method = "grubbs")
#> $method
#> [1] "grubbs"
#> 
#> $residuals
#> [1] "CWRES"
#> 
#> $source
#> # A tibble: 4,408 x 6
#>    ID      TIME   CMT     DV  PRED  CWRES
#>    <ord>  <dbl> <dbl>  <dbl> <dbl>  <dbl>
#>  1 1      0.125     2  0.863 53.2   0    
#>  2 1      0.208     2  2.04  52.3   0    
#>  3 1      0.375     2  5.15  50.6   0    
#>  4 1      1.04      2 12.8   45.0   0    
#>  5 1      2.04      2 21.0   38.7   0    
#>  6 1      3.04      2 23.8   34.3  -0.869
#>  7 1      8.02      2 16.7   23.0  -0.410
#>  8 1     10.0       2 13.4   20.0  -0.479
#>  9 1     21.0       2  2.82   7.99 -1.34 
#> 10 1     28.0       2  0.993  4.21 -1.23 
#> # … with 4,398 more rows
…
EXAMPLERUN %>%
 detect_outliers(compartment = 2, residuals = "CWRES",
                 method = "grubbs", grubbs_pvalue_threshold = 0.10)
#> $method
#> [1] "grubbs"
#> 
#> $residuals
#> [1] "CWRES"
#> 
#> $source
#> # A tibble: 4,408 x 6
#>    ID      TIME   CMT     DV  PRED  CWRES
#>    <ord>  <dbl> <dbl>  <dbl> <dbl>  <dbl>
#>  1 1      0.125     2  0.863 53.2   0    
#>  2 1      0.208     2  2.04  52.3   0    
#>  3 1      0.375     2  5.15  50.6   0    
#>  4 1      1.04      2 12.8   45.0   0    
#>  5 1      2.04      2 21.0   38.7   0    
#>  6 1      3.04      2 23.8   34.3  -0.869
#>  7 1      8.02      2 16.7   23.0  -0.410
#>  8 1     10.0       2 13.4   20.0  -0.479
#>  9 1     21.0       2  2.82   7.99 -1.34 
#> 10 1     28.0       2  0.993  4.21 -1.23 
#> # … with 4,398 more rows
…
EXAMPLERUN %>%
 detect_outliers(compartment = 2, residuals = "CWRES", method = "boxplot")
#> $method
#> [1] "boxplot"
#> 
#> $residuals
#> [1] "CWRES"
#> 
#> $source
#> # A tibble: 4,408 x 6
#>    ID      TIME   CMT     DV  PRED  CWRES
#>    <ord>  <dbl> <dbl>  <dbl> <dbl>  <dbl>
#>  1 1      0.125     2  0.863 53.2   0    
#>  2 1      0.208     2  2.04  52.3   0    
#>  3 1      0.375     2  5.15  50.6   0    
#>  4 1      1.04      2 12.8   45.0   0    
#>  5 1      2.04      2 21.0   38.7   0    
#>  6 1      3.04      2 23.8   34.3  -0.869
#>  7 1      8.02      2 16.7   23.0  -0.410
#>  8 1     10.0       2 13.4   20.0  -0.479
#>  9 1     21.0       2  2.82   7.99 -1.34 
#> 10 1     28.0       2  0.993  4.21 -1.23 
#> # … with 4,398 more rows
…
