Continuous covariates distributions summary — summarize_continuous_covariates • pmxploit
…
EXAMPLERUN %>% group_by(STUD) %>%  summarize_continuous_covariates()
#> # A tibble: 72 x 13
#> # Groups:   covariate [8]
#>    covariate Study     n n_distinct  mean median    sd `5.0%` `25.0%` `75.0%`
#>    <fct>     <ord> <int>      <int> <dbl>  <dbl> <dbl>  <dbl>   <dbl>   <dbl>
#>  1 Age (y)   0        30         23  38.1   35.5 15.5    18.5    24.5    50  
#>  2 Age (y)   1        24         16  33.8   35   12.3    19      23      41.8
#>  3 Age (y)   2        55         29  48.9   52   13.2    22.1    41.5    59  
#>  4 Age (y)   3        24         17  35.7   36    9.71   21.3    29      42.8
#>  5 Age (y)   4        72         31  50.9   54   10.8    28.6    44      59  
#>  6 Age (y)   5       149         38  57.4   58   10.1    39      50      65  
#>  7 Age (y)   6        60         30  58.2   59.5  8.93   44.0    50.8    65  
#>  8 Age (y)   7        61         31  53.8   55    9.77   36      50      60  
#>  9 Age (y)   8        52         20  60.8   61    4.63   53.6    58      64  
#> 10 BMI (kg/… 0        30         30  26.4   26.6  2.60   22.3    24.4    28.5
#> # … with 62 more rows, and 3 more variables: `95.0%` <dbl>, min <dbl>,
#> #   max <dbl>
EXAMPLERUN %>% group_by(STUD) %>% summarize_continuous_covariates(quantiles = NULL)
#> # A tibble: 72 x 9
#> # Groups:   covariate [8]
#>    covariate   Study     n n_distinct  mean median    sd   min   max
#>    <fct>       <ord> <int>      <int> <dbl>  <dbl> <dbl> <dbl> <dbl>
#>  1 Age (y)     0        30         23  38.1   35.5 15.5   18    65  
#>  2 Age (y)     1        24         16  33.8   35   12.3   18    53  
#>  3 Age (y)     2        55         29  48.9   52   13.2   18    65  
#>  4 Age (y)     3        24         17  35.7   36    9.71  20    54  
#>  5 Age (y)     4        72         31  50.9   54   10.8   21    65  
#>  6 Age (y)     5       149         38  57.4   58   10.1   24    75  
#>  7 Age (y)     6        60         30  58.2   59.5  8.93  37    73  
#>  8 Age (y)     7        61         31  53.8   55    9.77  25    74  
#>  9 Age (y)     8        52         20  60.8   61    4.63  49    72  
#> 10 BMI (kg/m²) 0        30         30  26.4   26.6  2.60  21.7  30.5
#> # … with 62 more rows
…
