Individual parameters distributions summary — summarize_parameters_distributions • pmxploit
…
EXAMPLERUN %>% group_by(STUD) %>% summarize_parameters_distributions()
#> # A tibble: 99 x 13
#> # Groups:   parameter [11]
#>    parameter Study     n n_distinct    mean  median     sd  `5.0%` `25.0%`
#>    <fct>     <ord> <int>      <int>   <dbl>   <dbl>  <dbl>   <dbl>   <dbl>
#>  1 CL        0        30         30   0.213   0.204 0.0531 1.41e-1   0.187
#>  2 CL        1        24         24   0.172   0.171 0.0200 1.36e-1   0.160
#>  3 CL        2        55         55   0.170   0.173 0.0336 1.22e-1   0.162
#>  4 CL        3        24         24   0.184   0.179 0.0243 1.54e-1   0.171
#>  5 CL        4        72         72   0.148   0.151 0.0348 7.82e-2   0.127
#>  6 CL        5       149        144   0.171   0.174 0.0147 1.39e-1   0.169
#>  7 CL        6        60         60   0.167   0.172 0.0193 1.31e-1   0.163
#>  8 CL        7        61         60   0.162   0.172 0.0219 1.10e-1   0.161
#>  9 CL        8        52         52   0.152   0.161 0.0293 9.61e-2   0.145
#> 10 KON       0        30          1 559     559     0      5.59e+2 559    
#> # … with 89 more rows, and 4 more variables: `75.0%` <dbl>, `95.0%` <dbl>,
#> #   min <dbl>, max <dbl>
EXAMPLERUN %>% group_by(STUD) %>% summarize_parameters_distributions(quantiles = NULL)
#> # A tibble: 99 x 9
#> # Groups:   parameter [11]
#>    parameter Study     n n_distinct    mean  median     sd      min     max
#>    <fct>     <ord> <int>      <int>   <dbl>   <dbl>  <dbl>    <dbl>   <dbl>
#>  1 CL        0        30         30   0.213   0.204 0.0531   0.112    0.336
#>  2 CL        1        24         24   0.172   0.171 0.0200   0.125    0.215
#>  3 CL        2        55         55   0.170   0.173 0.0336   0.0839   0.291
#>  4 CL        3        24         24   0.184   0.179 0.0243   0.135    0.249
#>  5 CL        4        72         72   0.148   0.151 0.0348   0.0508   0.212
#>  6 CL        5       149        144   0.171   0.174 0.0147   0.101    0.201
#>  7 CL        6        60         60   0.167   0.172 0.0193   0.0861   0.192
#>  8 CL        7        61         60   0.162   0.172 0.0219   0.0933   0.198
#>  9 CL        8        52         52   0.152   0.161 0.0293   0.0595   0.234
#> 10 KON       0        30          1 559     559     0      559      559    
#> # … with 89 more rows
…
